{
  "abi": [
    {
      "anonymous": false,
      "inputs": [
        {
          "indexed": true,
          "internalType": "address",
          "name": "previousOwner",
          "type": "address"
        },
        {
          "indexed": true,
          "internalType": "address",
          "name": "newOwner",
          "type": "address"
        }
      ],
      "name": "OwnershipTransferStarted",
      "type": "event"
    },
    {
      "anonymous": false,
      "inputs": [
        {
          "indexed": true,
          "internalType": "address",
          "name": "previousOwner",
          "type": "address"
        },
        {
          "indexed": true,
          "internalType": "address",
          "name": "newOwner",
          "type": "address"
        }
      ],
      "name": "OwnershipTransferred",
      "type": "event"
    },
    {
      "inputs": [],
      "name": "acceptOwnership",
      "outputs": [],
      "stateMutability": "nonpayable",
      "type": "function"
    },
    {
      "inputs": [],
      "name": "owner",
      "outputs": [
        {
          "internalType": "address",
          "name": "",
          "type": "address"
        }
      ],
      "stateMutability": "view",
      "type": "function"
    },
    {
      "inputs": [],
      "name": "pendingOwner",
      "outputs": [
        {
          "internalType": "address",
          "name": "",
          "type": "address"
        }
      ],
      "stateMutability": "view",
      "type": "function"
    },
    {
      "inputs": [],
      "name": "renounceOwnership",
      "outputs": [],
      "stateMutability": "nonpayable",
      "type": "function"
    },
    {
      "inputs": [
        {
          "internalType": "address",
          "name": "newOwner",
          "type": "address"
        }
      ],
      "name": "transferOwnership",
      "outputs": [],
      "stateMutability": "nonpayable",
      "type": "function"
    }
  ],
  "bytecode": {
    "object": "0x",
    "sourceMap": "",
    "linkReferences": {}
  },
  "deployedBytecode": {
    "object": "0x",
    "sourceMap": "",
    "linkReferences": {}
  },
  "methodIdentifiers": {
    "acceptOwnership()": "79ba5097",
    "owner()": "8da5cb5b",
    "pendingOwner()": "e30c3978",
    "renounceOwnership()": "715018a6",
    "transferOwnership(address)": "f2fde38b"
  },
  "rawMetadata": "{\"compiler\":{\"version\":\"0.8.17+commit.8df45f5f\"},\"language\":\"Solidity\",\"output\":{\"abi\":[{\"anonymous\":false,\"inputs\":[{\"indexed\":true,\"internalType\":\"address\",\"name\":\"previousOwner\",\"type\":\"address\"},{\"indexed\":true,\"internalType\":\"address\",\"name\":\"newOwner\",\"type\":\"address\"}],\"name\":\"OwnershipTransferStarted\",\"type\":\"event\"},{\"anonymous\":false,\"inputs\":[{\"indexed\":true,\"internalType\":\"address\",\"name\":\"previousOwner\",\"type\":\"address\"},{\"indexed\":true,\"internalType\":\"address\",\"name\":\"newOwner\",\"type\":\"address\"}],\"name\":\"OwnershipTransferred\",\"type\":\"event\"},{\"inputs\":[],\"name\":\"acceptOwnership\",\"outputs\":[],\"stateMutability\":\"nonpayable\",\"type\":\"function\"},{\"inputs\":[],\"name\":\"owner\",\"outputs\":[{\"internalType\":\"address\",\"name\":\"\",\"type\":\"address\"}],\"stateMutability\":\"view\",\"type\":\"function\"},{\"inputs\":[],\"name\":\"pendingOwner\",\"outputs\":[{\"internalType\":\"address\",\"name\":\"\",\"type\":\"address\"}],\"stateMutability\":\"view\",\"type\":\"function\"},{\"inputs\":[],\"name\":\"renounceOwnership\",\"outputs\":[],\"stateMutability\":\"nonpayable\",\"type\":\"function\"},{\"inputs\":[{\"internalType\":\"address\",\"name\":\"newOwner\",\"type\":\"address\"}],\"name\":\"transferOwnership\",\"outputs\":[],\"stateMutability\":\"nonpayable\",\"type\":\"function\"}],\"devdoc\":{\"details\":\"Contract module which provides access control mechanism, where there is an account (an owner) that can be granted exclusive access to specific functions. By default, the owner account will be the one that deploys the contract. This can later be changed with {transferOwnership} and {acceptOwnership}. This module is used through inheritance. It will make available all functions from parent (Ownable).\",\"kind\":\"dev\",\"methods\":{\"acceptOwnership()\":{\"details\":\"The new owner accepts the ownership transfer.\"},\"owner()\":{\"details\":\"Returns the address of the current owner.\"},\"pendingOwner()\":{\"details\":\"Returns the address of the pending owner.\"},\"renounceOwnership()\":{\"details\":\"Leaves the contract without owner. It will not be possible to call `onlyOwner` functions. Can only be called by the current owner. NOTE: Renouncing ownership will leave the contract without an owner, thereby disabling any functionality that is only available to the owner.\"},\"transferOwnership(address)\":{\"details\":\"Starts the ownership transfer of the contract to a new account. Replaces the pending transfer if there is one. Can only be called by the current owner.\"}},\"version\":1},\"userdoc\":{\"kind\":\"user\",\"methods\":{},\"version\":1}},\"settings\":{\"compilationTarget\":{\"lib/openzeppelin-contracts/contracts/access/Ownable2Step.sol\":\"Ownable2Step\"},\"evmVersion\":\"london\",\"libraries\":{},\"metadata\":{\"bytecodeHash\":\"ipfs\"},\"optimizer\":{\"enabled\":true,\"runs\":200},\"remappings\":[\":ds-test/=lib/forge-std/lib/ds-test/src/\",\":erc4626-tests/=lib/openzeppelin-contracts/lib/erc4626-tests/\",\":forge-std/=lib/forge-std/src/\",\":openzeppelin-contracts/=lib/openzeppelin-contracts/\",\":openzeppelin/=lib/openzeppelin-contracts/contracts/\"]},\"sources\":{\"lib/openzeppelin-contracts/contracts/access/Ownable.sol\":{\"keccak256\":\"0x923b9774b81c1abfb992262ae7763b6e6de77b077a7180d53c6ebb7b1c8bd648\",\"license\":\"MIT\",\"urls\":[\"bzz-raw://53445dc0431f9b45c06f567c6091da961d4087bec0010cca5bd62100fa624a38\",\"dweb:/ipfs/QmNvBYpBv183czrAqNXr76E8M3LF93ouAJFeAcHfb59Rcx\"]},\"lib/openzeppelin-contracts/contracts/access/Ownable2Step.sol\":{\"keccak256\":\"0x7cdab82b437a17902683a413c86d14f512674a0710007bf44c584a2d2d3ca833\",\"license\":\"MIT\",\"urls\":[\"bzz-raw://ffe4db7a9f3cdd5a5d019462c2859f4f98f7aae08704afdcb3ef0d08d966bbeb\",\"dweb:/ipfs/QmTCHSuoi22dAu55qv4TcENyTmv5mTpAoxmYWD8cRnEp3M\"]},\"lib/openzeppelin-contracts/contracts/utils/Context.sol\":{\"keccak256\":\"0xe2e337e6dde9ef6b680e07338c493ebea1b5fd09b43424112868e9cc1706bca7\",\"license\":\"MIT\",\"urls\":[\"bzz-raw://6df0ddf21ce9f58271bdfaa85cde98b200ef242a05a3f85c2bc10a8294800a92\",\"dweb:/ipfs/QmRK2Y5Yc6BK7tGKkgsgn3aJEQGi5aakeSPZvS65PV8Xp3\"]}},\"version\":1}",
  "metadata": {
    "compiler": {
      "version": "0.8.17+commit.8df45f5f"
    },
    "language": "Solidity",
    "output": {
      "abi": [
        {
          "inputs": [
            {
              "internalType": "address",
              "name": "previousOwner",
              "type": "address",
              "indexed": true
            },
            {
              "internalType": "address",
              "name": "newOwner",
              "type": "address",
              "indexed": true
            }
          ],
          "type": "event",
          "name": "OwnershipTransferStarted",
          "anonymous": false
        },
        {
          "inputs": [
            {
              "internalType": "address",
              "name": "previousOwner",
              "type": "address",
              "indexed": true
            },
            {
              "internalType": "address",
              "name": "newOwner",
              "type": "address",
              "indexed": true
            }
          ],
          "type": "event",
          "name": "OwnershipTransferred",
          "anonymous": false
        },
        {
          "inputs": [],
          "stateMutability": "nonpayable",
          "type": "function",
          "name": "acceptOwnership"
        },
        {
          "inputs": [],
          "stateMutability": "view",
          "type": "function",
          "name": "owner",
          "outputs": [
            {
              "internalType": "address",
              "name": "",
              "type": "address"
            }
          ]
        },
        {
          "inputs": [],
          "stateMutability": "view",
          "type": "function",
          "name": "pendingOwner",
          "outputs": [
            {
              "internalType": "address",
              "name": "",
              "type": "address"
            }
          ]
        },
        {
          "inputs": [],
          "stateMutability": "nonpayable",
          "type": "function",
          "name": "renounceOwnership"
        },
        {
          "inputs": [
            {
              "internalType": "address",
              "name": "newOwner",
              "type": "address"
            }
          ],
          "stateMutability": "nonpayable",
          "type": "function",
          "name": "transferOwnership"
        }
      ],
      "devdoc": {
        "kind": "dev",
        "methods": {
          "acceptOwnership()": {
            "details": "The new owner accepts the ownership transfer."
          },
          "owner()": {
            "details": "Returns the address of the current owner."
          },
          "pendingOwner()": {
            "details": "Returns the address of the pending owner."
          },
          "renounceOwnership()": {
            "details": "Leaves the contract without owner. It will not be possible to call `onlyOwner` functions. Can only be called by the current owner. NOTE: Renouncing ownership will leave the contract without an owner, thereby disabling any functionality that is only available to the owner."
          },
          "transferOwnership(address)": {
            "details": "Starts the ownership transfer of the contract to a new account. Replaces the pending transfer if there is one. Can only be called by the current owner."
          }
        },
        "version": 1
      },
      "userdoc": {
        "kind": "user",
        "methods": {},
        "version": 1
      }
    },
    "settings": {
      "remappings": [
        ":ds-test/=lib/forge-std/lib/ds-test/src/",
        ":erc4626-tests/=lib/openzeppelin-contracts/lib/erc4626-tests/",
        ":forge-std/=lib/forge-std/src/",
        ":openzeppelin-contracts/=lib/openzeppelin-contracts/",
        ":openzeppelin/=lib/openzeppelin-contracts/contracts/"
      ],
      "optimizer": {
        "enabled": true,
        "runs": 200
      },
      "metadata": {
        "bytecodeHash": "ipfs"
      },
      "compilationTarget": {
        "lib/openzeppelin-contracts/contracts/access/Ownable2Step.sol": "Ownable2Step"
      },
      "libraries": {}
    },
    "sources": {
      "lib/openzeppelin-contracts/contracts/access/Ownable.sol": {
        "keccak256": "0x923b9774b81c1abfb992262ae7763b6e6de77b077a7180d53c6ebb7b1c8bd648",
        "urls": [
          "bzz-raw://53445dc0431f9b45c06f567c6091da961d4087bec0010cca5bd62100fa624a38",
          "dweb:/ipfs/QmNvBYpBv183czrAqNXr76E8M3LF93ouAJFeAcHfb59Rcx"
        ],
        "license": "MIT"
      },
      "lib/openzeppelin-contracts/contracts/access/Ownable2Step.sol": {
        "keccak256": "0x7cdab82b437a17902683a413c86d14f512674a0710007bf44c584a2d2d3ca833",
        "urls": [
          "bzz-raw://ffe4db7a9f3cdd5a5d019462c2859f4f98f7aae08704afdcb3ef0d08d966bbeb",
          "dweb:/ipfs/QmTCHSuoi22dAu55qv4TcENyTmv5mTpAoxmYWD8cRnEp3M"
        ],
        "license": "MIT"
      },
      "lib/openzeppelin-contracts/contracts/utils/Context.sol": {
        "keccak256": "0xe2e337e6dde9ef6b680e07338c493ebea1b5fd09b43424112868e9cc1706bca7",
        "urls": [
          "bzz-raw://6df0ddf21ce9f58271bdfaa85cde98b200ef242a05a3f85c2bc10a8294800a92",
          "dweb:/ipfs/QmRK2Y5Yc6BK7tGKkgsgn3aJEQGi5aakeSPZvS65PV8Xp3"
        ],
        "license": "MIT"
      }
    },
    "version": 1
  },
  "ast": {
    "absolutePath": "lib/openzeppelin-contracts/contracts/access/Ownable2Step.sol",
    "id": 29562,
    "exportedSymbols": {
      "Context": [
        30273
      ],
      "Ownable": [
        29478
      ],
      "Ownable2Step": [
        29561
      ]
    },
    "nodeType": "SourceUnit",
    "src": "107:1842:19",
    "nodes": [
      {
        "id": 29480,
        "nodeType": "PragmaDirective",
        "src": "107:23:19",
        "nodes": [],
        "literals": [
          "solidity",
          "^",
          "0.8",
          ".0"
        ]
      },
      {
        "id": 29481,
        "nodeType": "ImportDirective",
        "src": "132:23:19",
        "nodes": [],
        "absolutePath": "lib/openzeppelin-contracts/contracts/access/Ownable.sol",
        "file": "./Ownable.sol",
        "nameLocation": "-1:-1:-1",
        "scope": 29562,
        "sourceUnit": 29479,
        "symbolAliases": [],
        "unitAlias": ""
      },
      {
        "id": 29561,
        "nodeType": "ContractDefinition",
        "src": "599:1349:19",
        "nodes": [
          {
            "id": 29486,
            "nodeType": "VariableDeclaration",
            "src": "647:29:19",
            "nodes": [],
            "constant": false,
            "mutability": "mutable",
            "name": "_pendingOwner",
            "nameLocation": "663:13:19",
            "scope": 29561,
            "stateVariable": true,
            "storageLocation": "default",
            "typeDescriptions": {
              "typeIdentifier": "t_address",
              "typeString": "address"
            },
            "typeName": {
              "id": 29485,
              "name": "address",
              "nodeType": "ElementaryTypeName",
              "src": "647:7:19",
              "stateMutability": "nonpayable",
              "typeDescriptions": {
                "typeIdentifier": "t_address",
                "typeString": "address"
              }
            },
            "visibility": "private"
          },
          {
            "id": 29492,
            "nodeType": "EventDefinition",
            "src": "683:88:19",
            "nodes": [],
            "anonymous": false,
            "eventSelector": "38d16b8cac22d99fc7c124b9cd0de2d3fa1faef420bfe791d8c362d765e22700",
            "name": "OwnershipTransferStarted",
            "nameLocation": "689:24:19",
            "parameters": {
              "id": 29491,
              "nodeType": "ParameterList",
              "parameters": [
                {
                  "constant": false,
                  "id": 29488,
                  "indexed": true,
                  "mutability": "mutable",
                  "name": "previousOwner",
                  "nameLocation": "730:13:19",
                  "nodeType": "VariableDeclaration",
                  "scope": 29492,
                  "src": "714:29:19",
                  "stateVariable": false,
                  "storageLocation": "default",
                  "typeDescriptions": {
                    "typeIdentifier": "t_address",
                    "typeString": "address"
                  },
                  "typeName": {
                    "id": 29487,
                    "name": "address",
                    "nodeType": "ElementaryTypeName",
                    "src": "714:7:19",
                    "stateMutability": "nonpayable",
                    "typeDescriptions": {
                      "typeIdentifier": "t_address",
                      "typeString": "address"
                    }
                  },
                  "visibility": "internal"
                },
                {
                  "constant": false,
                  "id": 29490,
                  "indexed": true,
                  "mutability": "mutable",
                  "name": "newOwner",
                  "nameLocation": "761:8:19",
                  "nodeType": "VariableDeclaration",
                  "scope": 29492,
                  "src": "745:24:19",
                  "stateVariable": false,
                  "storageLocation": "default",
                  "typeDescriptions": {
                    "typeIdentifier": "t_address",
                    "typeString": "address"
                  },
                  "typeName": {
                    "id": 29489,
                    "name": "address",
                    "nodeType": "ElementaryTypeName",
                    "src": "745:7:19",
                    "stateMutability": "nonpayable",
                    "typeDescriptions": {
                      "typeIdentifier": "t_address",
                      "typeString": "address"
                    }
                  },
                  "visibility": "internal"
                }
              ],
              "src": "713:57:19"
            }
          },
          {
            "id": 29501,
            "nodeType": "FunctionDefinition",
            "src": "847:99:19",
            "nodes": [],
            "body": {
              "id": 29500,
              "nodeType": "Block",
              "src": "909:37:19",
              "nodes": [],
              "statements": [
                {
                  "expression": {
                    "id": 29498,
                    "name": "_pendingOwner",
                    "nodeType": "Identifier",
                    "overloadedDeclarations": [],
                    "referencedDeclaration": 29486,
                    "src": "926:13:19",
                    "typeDescriptions": {
                      "typeIdentifier": "t_address",
                      "typeString": "address"
                    }
                  },
                  "functionReturnParameters": 29497,
                  "id": 29499,
                  "nodeType": "Return",
                  "src": "919:20:19"
                }
              ]
            },
            "documentation": {
              "id": 29493,
              "nodeType": "StructuredDocumentation",
              "src": "777:65:19",
              "text": " @dev Returns the address of the pending owner."
            },
            "functionSelector": "e30c3978",
            "implemented": true,
            "kind": "function",
            "modifiers": [],
            "name": "pendingOwner",
            "nameLocation": "856:12:19",
            "parameters": {
              "id": 29494,
              "nodeType": "ParameterList",
              "parameters": [],
              "src": "868:2:19"
            },
            "returnParameters": {
              "id": 29497,
              "nodeType": "ParameterList",
              "parameters": [
                {
                  "constant": false,
                  "id": 29496,
                  "mutability": "mutable",
                  "name": "",
                  "nameLocation": "-1:-1:-1",
                  "nodeType": "VariableDeclaration",
                  "scope": 29501,
                  "src": "900:7:19",
                  "stateVariable": false,
                  "storageLocation": "default",
                  "typeDescriptions": {
                    "typeIdentifier": "t_address",
                    "typeString": "address"
                  },
                  "typeName": {
                    "id": 29495,
                    "name": "address",
                    "nodeType": "ElementaryTypeName",
                    "src": "900:7:19",
                    "stateMutability": "nonpayable",
                    "typeDescriptions": {
                      "typeIdentifier": "t_address",
                      "typeString": "address"
                    }
                  },
                  "visibility": "internal"
                }
              ],
              "src": "899:9:19"
            },
            "scope": 29561,
            "stateMutability": "view",
            "virtual": true,
            "visibility": "public"
          },
          {
            "id": 29521,
            "nodeType": "FunctionDefinition",
            "src": "1139:178:19",
            "nodes": [],
            "body": {
              "id": 29520,
              "nodeType": "Block",
              "src": "1218:99:19",
              "nodes": [],
              "statements": [
                {
                  "expression": {
                    "id": 29512,
                    "isConstant": false,
                    "isLValue": false,
                    "isPure": false,
                    "lValueRequested": false,
                    "leftHandSide": {
                      "id": 29510,
                      "name": "_pendingOwner",
                      "nodeType": "Identifier",
                      "overloadedDeclarations": [],
                      "referencedDeclaration": 29486,
                      "src": "1228:13:19",
                      "typeDescriptions": {
                        "typeIdentifier": "t_address",
                        "typeString": "address"
                      }
                    },
                    "nodeType": "Assignment",
                    "operator": "=",
                    "rightHandSide": {
                      "id": 29511,
                      "name": "newOwner",
                      "nodeType": "Identifier",
                      "overloadedDeclarations": [],
                      "referencedDeclaration": 29504,
                      "src": "1244:8:19",
                      "typeDescriptions": {
                        "typeIdentifier": "t_address",
                        "typeString": "address"
                      }
                    },
                    "src": "1228:24:19",
                    "typeDescriptions": {
                      "typeIdentifier": "t_address",
                      "typeString": "address"
                    }
                  },
                  "id": 29513,
                  "nodeType": "ExpressionStatement",
                  "src": "1228:24:19"
                },
                {
                  "eventCall": {
                    "arguments": [
                      {
                        "arguments": [],
                        "expression": {
                          "argumentTypes": [],
                          "id": 29515,
                          "name": "owner",
                          "nodeType": "Identifier",
                          "overloadedDeclarations": [],
                          "referencedDeclaration": 29406,
                          "src": "1292:5:19",
                          "typeDescriptions": {
                            "typeIdentifier": "t_function_internal_view$__$returns$_t_address_$",
                            "typeString": "function () view returns (address)"
                          }
                        },
                        "id": 29516,
                        "isConstant": false,
                        "isLValue": false,
                        "isPure": false,
                        "kind": "functionCall",
                        "lValueRequested": false,
                        "nameLocations": [],
                        "names": [],
                        "nodeType": "FunctionCall",
                        "src": "1292:7:19",
                        "tryCall": false,
                        "typeDescriptions": {
                          "typeIdentifier": "t_address",
                          "typeString": "address"
                        }
                      },
                      {
                        "id": 29517,
                        "name": "newOwner",
                        "nodeType": "Identifier",
                        "overloadedDeclarations": [],
                        "referencedDeclaration": 29504,
                        "src": "1301:8:19",
                        "typeDescriptions": {
                          "typeIdentifier": "t_address",
                          "typeString": "address"
                        }
                      }
                    ],
                    "expression": {
                      "argumentTypes": [
                        {
                          "typeIdentifier": "t_address",
                          "typeString": "address"
                        },
                        {
                          "typeIdentifier": "t_address",
                          "typeString": "address"
                        }
                      ],
                      "id": 29514,
                      "name": "OwnershipTransferStarted",
                      "nodeType": "Identifier",
                      "overloadedDeclarations": [],
                      "referencedDeclaration": 29492,
                      "src": "1267:24:19",
                      "typeDescriptions": {
                        "typeIdentifier": "t_function_event_nonpayable$_t_address_$_t_address_$returns$__$",
                        "typeString": "function (address,address)"
                      }
                    },
                    "id": 29518,
                    "isConstant": false,
                    "isLValue": false,
                    "isPure": false,
                    "kind": "functionCall",
                    "lValueRequested": false,
                    "nameLocations": [],
                    "names": [],
                    "nodeType": "FunctionCall",
                    "src": "1267:43:19",
                    "tryCall": false,
                    "typeDescriptions": {
                      "typeIdentifier": "t_tuple$__$",
                      "typeString": "tuple()"
                    }
                  },
                  "id": 29519,
                  "nodeType": "EmitStatement",
                  "src": "1262:48:19"
                }
              ]
            },
            "baseFunctions": [
              29457
            ],
            "documentation": {
              "id": 29502,
              "nodeType": "StructuredDocumentation",
              "src": "952:182:19",
              "text": " @dev Starts the ownership transfer of the contract to a new account. Replaces the pending transfer if there is one.\n Can only be called by the current owner."
            },
            "functionSelector": "f2fde38b",
            "implemented": true,
            "kind": "function",
            "modifiers": [
              {
                "id": 29508,
                "kind": "modifierInvocation",
                "modifierName": {
                  "id": 29507,
                  "name": "onlyOwner",
                  "nameLocations": [
                    "1208:9:19"
                  ],
                  "nodeType": "IdentifierPath",
                  "referencedDeclaration": 29397,
                  "src": "1208:9:19"
                },
                "nodeType": "ModifierInvocation",
                "src": "1208:9:19"
              }
            ],
            "name": "transferOwnership",
            "nameLocation": "1148:17:19",
            "overrides": {
              "id": 29506,
              "nodeType": "OverrideSpecifier",
              "overrides": [],
              "src": "1199:8:19"
            },
            "parameters": {
              "id": 29505,
              "nodeType": "ParameterList",
              "parameters": [
                {
                  "constant": false,
                  "id": 29504,
                  "mutability": "mutable",
                  "name": "newOwner",
                  "nameLocation": "1174:8:19",
                  "nodeType": "VariableDeclaration",
                  "scope": 29521,
                  "src": "1166:16:19",
                  "stateVariable": false,
                  "storageLocation": "default",
                  "typeDescriptions": {
                    "typeIdentifier": "t_address",
                    "typeString": "address"
                  },
                  "typeName": {
                    "id": 29503,
                    "name": "address",
                    "nodeType": "ElementaryTypeName",
                    "src": "1166:7:19",
                    "stateMutability": "nonpayable",
                    "typeDescriptions": {
                      "typeIdentifier": "t_address",
                      "typeString": "address"
                    }
                  },
                  "visibility": "internal"
                }
              ],
              "src": "1165:18:19"
            },
            "returnParameters": {
              "id": 29509,
              "nodeType": "ParameterList",
              "parameters": [],
              "src": "1218:0:19"
            },
            "scope": 29561,
            "stateMutability": "nonpayable",
            "virtual": true,
            "visibility": "public"
          },
          {
            "id": 29538,
            "nodeType": "FunctionDefinition",
            "src": "1501:153:19",
            "nodes": [],
            "body": {
              "id": 29537,
              "nodeType": "Block",
              "src": "1573:81:19",
              "nodes": [],
              "statements": [
                {
                  "expression": {
                    "id": 29529,
                    "isConstant": false,
                    "isLValue": false,
                    "isPure": false,
                    "lValueRequested": false,
                    "nodeType": "UnaryOperation",
                    "operator": "delete",
                    "prefix": true,
                    "src": "1583:20:19",
                    "subExpression": {
                      "id": 29528,
                      "name": "_pendingOwner",
                      "nodeType": "Identifier",
                      "overloadedDeclarations": [],
                      "referencedDeclaration": 29486,
                      "src": "1590:13:19",
                      "typeDescriptions": {
                        "typeIdentifier": "t_address",
                        "typeString": "address"
                      }
                    },
                    "typeDescriptions": {
                      "typeIdentifier": "t_tuple$__$",
                      "typeString": "tuple()"
                    }
                  },
                  "id": 29530,
                  "nodeType": "ExpressionStatement",
                  "src": "1583:20:19"
                },
                {
                  "expression": {
                    "arguments": [
                      {
                        "id": 29534,
                        "name": "newOwner",
                        "nodeType": "Identifier",
                        "overloadedDeclarations": [],
                        "referencedDeclaration": 29524,
                        "src": "1638:8:19",
                        "typeDescriptions": {
                          "typeIdentifier": "t_address",
                          "typeString": "address"
                        }
                      }
                    ],
                    "expression": {
                      "argumentTypes": [
                        {
                          "typeIdentifier": "t_address",
                          "typeString": "address"
                        }
                      ],
                      "expression": {
                        "id": 29531,
                        "name": "super",
                        "nodeType": "Identifier",
                        "overloadedDeclarations": [],
                        "referencedDeclaration": -25,
                        "src": "1613:5:19",
                        "typeDescriptions": {
                          "typeIdentifier": "t_type$_t_super$_Ownable2Step_$29561_$",
                          "typeString": "type(contract super Ownable2Step)"
                        }
                      },
                      "id": 29533,
                      "isConstant": false,
                      "isLValue": false,
                      "isPure": false,
                      "lValueRequested": false,
                      "memberLocation": "1619:18:19",
                      "memberName": "_transferOwnership",
                      "nodeType": "MemberAccess",
                      "referencedDeclaration": 29477,
                      "src": "1613:24:19",
                      "typeDescriptions": {
                        "typeIdentifier": "t_function_internal_nonpayable$_t_address_$returns$__$",
                        "typeString": "function (address)"
                      }
                    },
                    "id": 29535,
                    "isConstant": false,
                    "isLValue": false,
                    "isPure": false,
                    "kind": "functionCall",
                    "lValueRequested": false,
                    "nameLocations": [],
                    "names": [],
                    "nodeType": "FunctionCall",
                    "src": "1613:34:19",
                    "tryCall": false,
                    "typeDescriptions": {
                      "typeIdentifier": "t_tuple$__$",
                      "typeString": "tuple()"
                    }
                  },
                  "id": 29536,
                  "nodeType": "ExpressionStatement",
                  "src": "1613:34:19"
                }
              ]
            },
            "baseFunctions": [
              29477
            ],
            "documentation": {
              "id": 29522,
              "nodeType": "StructuredDocumentation",
              "src": "1323:173:19",
              "text": " @dev Transfers ownership of the contract to a new account (`newOwner`) and deletes any pending owner.\n Internal function without access restriction."
            },
            "implemented": true,
            "kind": "function",
            "modifiers": [],
            "name": "_transferOwnership",
            "nameLocation": "1510:18:19",
            "overrides": {
              "id": 29526,
              "nodeType": "OverrideSpecifier",
              "overrides": [],
              "src": "1564:8:19"
            },
            "parameters": {
              "id": 29525,
              "nodeType": "ParameterList",
              "parameters": [
                {
                  "constant": false,
                  "id": 29524,
                  "mutability": "mutable",
                  "name": "newOwner",
                  "nameLocation": "1537:8:19",
                  "nodeType": "VariableDeclaration",
                  "scope": 29538,
                  "src": "1529:16:19",
                  "stateVariable": false,
                  "storageLocation": "default",
                  "typeDescriptions": {
                    "typeIdentifier": "t_address",
                    "typeString": "address"
                  },
                  "typeName": {
                    "id": 29523,
                    "name": "address",
                    "nodeType": "ElementaryTypeName",
                    "src": "1529:7:19",
                    "stateMutability": "nonpayable",
                    "typeDescriptions": {
                      "typeIdentifier": "t_address",
                      "typeString": "address"
                    }
                  },
                  "visibility": "internal"
                }
              ],
              "src": "1528:18:19"
            },
            "returnParameters": {
              "id": 29527,
              "nodeType": "ParameterList",
              "parameters": [],
              "src": "1573:0:19"
            },
            "scope": 29561,
            "stateMutability": "nonpayable",
            "virtual": true,
            "visibility": "internal"
          },
          {
            "id": 29560,
            "nodeType": "FunctionDefinition",
            "src": "1734:212:19",
            "nodes": [],
            "body": {
              "id": 29559,
              "nodeType": "Block",
              "src": "1776:170:19",
              "nodes": [],
              "statements": [
                {
                  "assignments": [
                    29543
                  ],
                  "declarations": [
                    {
                      "constant": false,
                      "id": 29543,
                      "mutability": "mutable",
                      "name": "sender",
                      "nameLocation": "1794:6:19",
                      "nodeType": "VariableDeclaration",
                      "scope": 29559,
                      "src": "1786:14:19",
                      "stateVariable": false,
                      "storageLocation": "default",
                      "typeDescriptions": {
                        "typeIdentifier": "t_address",
                        "typeString": "address"
                      },
                      "typeName": {
                        "id": 29542,
                        "name": "address",
                        "nodeType": "ElementaryTypeName",
                        "src": "1786:7:19",
                        "stateMutability": "nonpayable",
                        "typeDescriptions": {
                          "typeIdentifier": "t_address",
                          "typeString": "address"
                        }
                      },
                      "visibility": "internal"
                    }
                  ],
                  "id": 29546,
                  "initialValue": {
                    "arguments": [],
                    "expression": {
                      "argumentTypes": [],
                      "id": 29544,
                      "name": "_msgSender",
                      "nodeType": "Identifier",
                      "overloadedDeclarations": [],
                      "referencedDeclaration": 30263,
                      "src": "1803:10:19",
                      "typeDescriptions": {
                        "typeIdentifier": "t_function_internal_view$__$returns$_t_address_$",
                        "typeString": "function () view returns (address)"
                      }
                    },
                    "id": 29545,
                    "isConstant": false,
                    "isLValue": false,
                    "isPure": false,
                    "kind": "functionCall",
                    "lValueRequested": false,
                    "nameLocations": [],
                    "names": [],
                    "nodeType": "FunctionCall",
                    "src": "1803:12:19",
                    "tryCall": false,
                    "typeDescriptions": {
                      "typeIdentifier": "t_address",
                      "typeString": "address"
                    }
                  },
                  "nodeType": "VariableDeclarationStatement",
                  "src": "1786:29:19"
                },
                {
                  "expression": {
                    "arguments": [
                      {
                        "commonType": {
                          "typeIdentifier": "t_address",
                          "typeString": "address"
                        },
                        "id": 29551,
                        "isConstant": false,
                        "isLValue": false,
                        "isPure": false,
                        "lValueRequested": false,
                        "leftExpression": {
                          "arguments": [],
                          "expression": {
                            "argumentTypes": [],
                            "id": 29548,
                            "name": "pendingOwner",
                            "nodeType": "Identifier",
                            "overloadedDeclarations": [],
                            "referencedDeclaration": 29501,
                            "src": "1833:12:19",
                            "typeDescriptions": {
                              "typeIdentifier": "t_function_internal_view$__$returns$_t_address_$",
                              "typeString": "function () view returns (address)"
                            }
                          },
                          "id": 29549,
                          "isConstant": false,
                          "isLValue": false,
                          "isPure": false,
                          "kind": "functionCall",
                          "lValueRequested": false,
                          "nameLocations": [],
                          "names": [],
                          "nodeType": "FunctionCall",
                          "src": "1833:14:19",
                          "tryCall": false,
                          "typeDescriptions": {
                            "typeIdentifier": "t_address",
                            "typeString": "address"
                          }
                        },
                        "nodeType": "BinaryOperation",
                        "operator": "==",
                        "rightExpression": {
                          "id": 29550,
                          "name": "sender",
                          "nodeType": "Identifier",
                          "overloadedDeclarations": [],
                          "referencedDeclaration": 29543,
                          "src": "1851:6:19",
                          "typeDescriptions": {
                            "typeIdentifier": "t_address",
                            "typeString": "address"
                          }
                        },
                        "src": "1833:24:19",
                        "typeDescriptions": {
                          "typeIdentifier": "t_bool",
                          "typeString": "bool"
                        }
                      },
                      {
                        "hexValue": "4f776e61626c6532537465703a2063616c6c6572206973206e6f7420746865206e6577206f776e6572",
                        "id": 29552,
                        "isConstant": false,
                        "isLValue": false,
                        "isPure": true,
                        "kind": "string",
                        "lValueRequested": false,
                        "nodeType": "Literal",
                        "src": "1859:43:19",
                        "typeDescriptions": {
                          "typeIdentifier": "t_stringliteral_225559eb8402045bea7ff07c35d0ad8c0547830223ac1c21d44fb948d6896ebc",
                          "typeString": "literal_string \"Ownable2Step: caller is not the new owner\""
                        },
                        "value": "Ownable2Step: caller is not the new owner"
                      }
                    ],
                    "expression": {
                      "argumentTypes": [
                        {
                          "typeIdentifier": "t_bool",
                          "typeString": "bool"
                        },
                        {
                          "typeIdentifier": "t_stringliteral_225559eb8402045bea7ff07c35d0ad8c0547830223ac1c21d44fb948d6896ebc",
                          "typeString": "literal_string \"Ownable2Step: caller is not the new owner\""
                        }
                      ],
                      "id": 29547,
                      "name": "require",
                      "nodeType": "Identifier",
                      "overloadedDeclarations": [
                        -18,
                        -18
                      ],
                      "referencedDeclaration": -18,
                      "src": "1825:7:19",
                      "typeDescriptions": {
                        "typeIdentifier": "t_function_require_pure$_t_bool_$_t_string_memory_ptr_$returns$__$",
                        "typeString": "function (bool,string memory) pure"
                      }
                    },
                    "id": 29553,
                    "isConstant": false,
                    "isLValue": false,
                    "isPure": false,
                    "kind": "functionCall",
                    "lValueRequested": false,
                    "nameLocations": [],
                    "names": [],
                    "nodeType": "FunctionCall",
                    "src": "1825:78:19",
                    "tryCall": false,
                    "typeDescriptions": {
                      "typeIdentifier": "t_tuple$__$",
                      "typeString": "tuple()"
                    }
                  },
                  "id": 29554,
                  "nodeType": "ExpressionStatement",
                  "src": "1825:78:19"
                },
                {
                  "expression": {
                    "arguments": [
                      {
                        "id": 29556,
                        "name": "sender",
                        "nodeType": "Identifier",
                        "overloadedDeclarations": [],
                        "referencedDeclaration": 29543,
                        "src": "1932:6:19",
                        "typeDescriptions": {
                          "typeIdentifier": "t_address",
                          "typeString": "address"
                        }
                      }
                    ],
                    "expression": {
                      "argumentTypes": [
                        {
                          "typeIdentifier": "t_address",
                          "typeString": "address"
                        }
                      ],
                      "id": 29555,
                      "name": "_transferOwnership",
                      "nodeType": "Identifier",
                      "overloadedDeclarations": [
                        29538
                      ],
                      "referencedDeclaration": 29538,
                      "src": "1913:18:19",
                      "typeDescriptions": {
                        "typeIdentifier": "t_function_internal_nonpayable$_t_address_$returns$__$",
                        "typeString": "function (address)"
                      }
                    },
                    "id": 29557,
                    "isConstant": false,
                    "isLValue": false,
                    "isPure": false,
                    "kind": "functionCall",
                    "lValueRequested": false,
                    "nameLocations": [],
                    "names": [],
                    "nodeType": "FunctionCall",
                    "src": "1913:26:19",
                    "tryCall": false,
                    "typeDescriptions": {
                      "typeIdentifier": "t_tuple$__$",
                      "typeString": "tuple()"
                    }
                  },
                  "id": 29558,
                  "nodeType": "ExpressionStatement",
                  "src": "1913:26:19"
                }
              ]
            },
            "documentation": {
              "id": 29539,
              "nodeType": "StructuredDocumentation",
              "src": "1660:69:19",
              "text": " @dev The new owner accepts the ownership transfer."
            },
            "functionSelector": "79ba5097",
            "implemented": true,
            "kind": "function",
            "modifiers": [],
            "name": "acceptOwnership",
            "nameLocation": "1743:15:19",
            "parameters": {
              "id": 29540,
              "nodeType": "ParameterList",
              "parameters": [],
              "src": "1758:2:19"
            },
            "returnParameters": {
              "id": 29541,
              "nodeType": "ParameterList",
              "parameters": [],
              "src": "1776:0:19"
            },
            "scope": 29561,
            "stateMutability": "nonpayable",
            "virtual": true,
            "visibility": "public"
          }
        ],
        "abstract": true,
        "baseContracts": [
          {
            "baseName": {
              "id": 29483,
              "name": "Ownable",
              "nameLocations": [
                "633:7:19"
              ],
              "nodeType": "IdentifierPath",
              "referencedDeclaration": 29478,
              "src": "633:7:19"
            },
            "id": 29484,
            "nodeType": "InheritanceSpecifier",
            "src": "633:7:19"
          }
        ],
        "canonicalName": "Ownable2Step",
        "contractDependencies": [],
        "contractKind": "contract",
        "documentation": {
          "id": 29482,
          "nodeType": "StructuredDocumentation",
          "src": "157:441:19",
          "text": " @dev Contract module which provides access control mechanism, where\n there is an account (an owner) that can be granted exclusive access to\n specific functions.\n By default, the owner account will be the one that deploys the contract. This\n can later be changed with {transferOwnership} and {acceptOwnership}.\n This module is used through inheritance. It will make available all functions\n from parent (Ownable)."
        },
        "fullyImplemented": true,
        "linearizedBaseContracts": [
          29561,
          29478,
          30273
        ],
        "name": "Ownable2Step",
        "nameLocation": "617:12:19",
        "scope": 29562,
        "usedErrors": []
      }
    ],
    "license": "MIT"
  },
  "id": 19
}