{
  "abi": [],
  "bytecode": {
    "object": "0x",
    "sourceMap": "",
    "linkReferences": {}
  },
  "deployedBytecode": {
    "object": "0x",
    "sourceMap": "",
    "linkReferences": {}
  },
  "methodIdentifiers": {},
  "rawMetadata": "{\"compiler\":{\"version\":\"0.8.17+commit.8df45f5f\"},\"language\":\"Solidity\",\"output\":{\"abi\":[],\"devdoc\":{\"kind\":\"dev\",\"methods\":{},\"version\":1},\"userdoc\":{\"kind\":\"user\",\"methods\":{},\"version\":1}},\"settings\":{\"compilationTarget\":{\"lib/forge-std/src/Base.sol\":\"CommonBase\"},\"evmVersion\":\"london\",\"libraries\":{},\"metadata\":{\"bytecodeHash\":\"ipfs\"},\"optimizer\":{\"enabled\":true,\"runs\":200},\"remappings\":[\":ds-test/=lib/forge-std/lib/ds-test/src/\",\":erc4626-tests/=lib/openzeppelin-contracts/lib/erc4626-tests/\",\":forge-std/=lib/forge-std/src/\",\":openzeppelin-contracts/=lib/openzeppelin-contracts/\",\":openzeppelin/=lib/openzeppelin-contracts/contracts/\"]},\"sources\":{\"lib/forge-std/src/Base.sol\":{\"keccak256\":\"0x4ff1a785311017d1eedb1b4737956fa383067ad34eb439abfec1d989754dde1c\",\"license\":\"MIT\",\"urls\":[\"bzz-raw://f553622969b9fdb930246704a4c10dfaee6b1a4468c142fa7eb9dc292a438224\",\"dweb:/ipfs/QmcxqHnqdQsMVtgsfH9VNLmZ3g7GhgNagfq7yvNCDcCHFK\"]},\"lib/forge-std/src/StdStorage.sol\":{\"keccak256\":\"0xd1517df281f973dba8b7ba52c02d3df552b60d91b8f47e4669049da648778673\",\"license\":\"MIT\",\"urls\":[\"bzz-raw://52e43264f58a5dcfd985f3c99aa81064805aa8f1c2b4c6521fd63d45cdbba8d5\",\"dweb:/ipfs/QmUMTF6cRjt5tCQrrgQDXVRmHQLjevNsTvLFdaA1m9TBj9\"]},\"lib/forge-std/src/Vm.sol\":{\"keccak256\":\"0xb5d4816a3f37977b1efa07b5e715daa917e96fd28dec1805c4189653db4ea33a\",\"license\":\"MIT\",\"urls\":[\"bzz-raw://34338fa7f079f8d64f20d976f9bf908a710c8728f18c4b361b020b24fedfedf2\",\"dweb:/ipfs/QmYhwY1wi6vVLMUsJ32L3GiSR9HRaFhGL1Y3wRDjy41KXn\"]}},\"version\":1}",
  "metadata": {
    "compiler": {
      "version": "0.8.17+commit.8df45f5f"
    },
    "language": "Solidity",
    "output": {
      "abi": [],
      "devdoc": {
        "kind": "dev",
        "methods": {},
        "version": 1
      },
      "userdoc": {
        "kind": "user",
        "methods": {},
        "version": 1
      }
    },
    "settings": {
      "remappings": [
        ":ds-test/=lib/forge-std/lib/ds-test/src/",
        ":erc4626-tests/=lib/openzeppelin-contracts/lib/erc4626-tests/",
        ":forge-std/=lib/forge-std/src/",
        ":openzeppelin-contracts/=lib/openzeppelin-contracts/",
        ":openzeppelin/=lib/openzeppelin-contracts/contracts/"
      ],
      "optimizer": {
        "enabled": true,
        "runs": 200
      },
      "metadata": {
        "bytecodeHash": "ipfs"
      },
      "compilationTarget": {
        "lib/forge-std/src/Base.sol": "CommonBase"
      },
      "libraries": {}
    },
    "sources": {
      "lib/forge-std/src/Base.sol": {
        "keccak256": "0x4ff1a785311017d1eedb1b4737956fa383067ad34eb439abfec1d989754dde1c",
        "urls": [
          "bzz-raw://f553622969b9fdb930246704a4c10dfaee6b1a4468c142fa7eb9dc292a438224",
          "dweb:/ipfs/QmcxqHnqdQsMVtgsfH9VNLmZ3g7GhgNagfq7yvNCDcCHFK"
        ],
        "license": "MIT"
      },
      "lib/forge-std/src/StdStorage.sol": {
        "keccak256": "0xd1517df281f973dba8b7ba52c02d3df552b60d91b8f47e4669049da648778673",
        "urls": [
          "bzz-raw://52e43264f58a5dcfd985f3c99aa81064805aa8f1c2b4c6521fd63d45cdbba8d5",
          "dweb:/ipfs/QmUMTF6cRjt5tCQrrgQDXVRmHQLjevNsTvLFdaA1m9TBj9"
        ],
        "license": "MIT"
      },
      "lib/forge-std/src/Vm.sol": {
        "keccak256": "0xb5d4816a3f37977b1efa07b5e715daa917e96fd28dec1805c4189653db4ea33a",
        "urls": [
          "bzz-raw://34338fa7f079f8d64f20d976f9bf908a710c8728f18c4b361b020b24fedfedf2",
          "dweb:/ipfs/QmYhwY1wi6vVLMUsJ32L3GiSR9HRaFhGL1Y3wRDjy41KXn"
        ],
        "license": "MIT"
      }
    },
    "version": 1
  },
  "ast": {
    "absolutePath": "lib/forge-std/src/Base.sol",
    "id": 3585,
    "exportedSymbols": {
      "CommonBase": [
        3572
      ],
      "ScriptBase": [
        3584
      ],
      "StdStorage": [
        9148
      ],
      "TestBase": [
        3575
      ],
      "Vm": [
        14195
      ],
      "VmSafe": [
        13738
      ]
    },
    "nodeType": "SourceUnit",
    "src": "32:1761:4",
    "nodes": [
      {
        "id": 3511,
        "nodeType": "PragmaDirective",
        "src": "32:31:4",
        "nodes": [],
        "literals": [
          "solidity",
          ">=",
          "0.6",
          ".2",
          "<",
          "0.9",
          ".0"
        ]
      },
      {
        "id": 3513,
        "nodeType": "ImportDirective",
        "src": "65:44:4",
        "nodes": [],
        "absolutePath": "lib/forge-std/src/StdStorage.sol",
        "file": "./StdStorage.sol",
        "nameLocation": "-1:-1:-1",
        "scope": 3585,
        "sourceUnit": 10582,
        "symbolAliases": [
          {
            "foreign": {
              "id": 3512,
              "name": "StdStorage",
              "nodeType": "Identifier",
              "overloadedDeclarations": [],
              "referencedDeclaration": 9148,
              "src": "73:10:4",
              "typeDescriptions": {}
            },
            "nameLocation": "-1:-1:-1"
          }
        ],
        "unitAlias": ""
      },
      {
        "id": 3516,
        "nodeType": "ImportDirective",
        "src": "110:36:4",
        "nodes": [],
        "absolutePath": "lib/forge-std/src/Vm.sol",
        "file": "./Vm.sol",
        "nameLocation": "-1:-1:-1",
        "scope": 3585,
        "sourceUnit": 14196,
        "symbolAliases": [
          {
            "foreign": {
              "id": 3514,
              "name": "Vm",
              "nodeType": "Identifier",
              "overloadedDeclarations": [],
              "referencedDeclaration": 14195,
              "src": "118:2:4",
              "typeDescriptions": {}
            },
            "nameLocation": "-1:-1:-1"
          },
          {
            "foreign": {
              "id": 3515,
              "name": "VmSafe",
              "nodeType": "Identifier",
              "overloadedDeclarations": [],
              "referencedDeclaration": 13738,
              "src": "122:6:4",
              "typeDescriptions": {}
            },
            "nameLocation": "-1:-1:-1"
          }
        ],
        "unitAlias": ""
      },
      {
        "id": 3572,
        "nodeType": "ContractDefinition",
        "src": "148:1493:4",
        "nodes": [
          {
            "id": 3530,
            "nodeType": "VariableDeclaration",
            "src": "254:94:4",
            "nodes": [],
            "constant": true,
            "mutability": "constant",
            "name": "VM_ADDRESS",
            "nameLocation": "280:10:4",
            "scope": 3572,
            "stateVariable": true,
            "storageLocation": "default",
            "typeDescriptions": {
              "typeIdentifier": "t_address",
              "typeString": "address"
            },
            "typeName": {
              "id": 3517,
              "name": "address",
              "nodeType": "ElementaryTypeName",
              "src": "254:7:4",
              "stateMutability": "nonpayable",
              "typeDescriptions": {
                "typeIdentifier": "t_address",
                "typeString": "address"
              }
            },
            "value": {
              "arguments": [
                {
                  "arguments": [
                    {
                      "arguments": [
                        {
                          "arguments": [
                            {
                              "hexValue": "6865766d20636865617420636f6465",
                              "id": 3525,
                              "isConstant": false,
                              "isLValue": false,
                              "isPure": true,
                              "kind": "string",
                              "lValueRequested": false,
                              "nodeType": "Literal",
                              "src": "327:17:4",
                              "typeDescriptions": {
                                "typeIdentifier": "t_stringliteral_885cb69240a935d632d79c317109709ecfa91a80626ff3989d68f67f5b1dd12d",
                                "typeString": "literal_string \"hevm cheat code\""
                              },
                              "value": "hevm cheat code"
                            }
                          ],
                          "expression": {
                            "argumentTypes": [
                              {
                                "typeIdentifier": "t_stringliteral_885cb69240a935d632d79c317109709ecfa91a80626ff3989d68f67f5b1dd12d",
                                "typeString": "literal_string \"hevm cheat code\""
                              }
                            ],
                            "id": 3524,
                            "name": "keccak256",
                            "nodeType": "Identifier",
                            "overloadedDeclarations": [],
                            "referencedDeclaration": -8,
                            "src": "317:9:4",
                            "typeDescriptions": {
                              "typeIdentifier": "t_function_keccak256_pure$_t_bytes_memory_ptr_$returns$_t_bytes32_$",
                              "typeString": "function (bytes memory) pure returns (bytes32)"
                            }
                          },
                          "id": 3526,
                          "isConstant": false,
                          "isLValue": false,
                          "isPure": true,
                          "kind": "functionCall",
                          "lValueRequested": false,
                          "nameLocations": [],
                          "names": [],
                          "nodeType": "FunctionCall",
                          "src": "317:28:4",
                          "tryCall": false,
                          "typeDescriptions": {
                            "typeIdentifier": "t_bytes32",
                            "typeString": "bytes32"
                          }
                        }
                      ],
                      "expression": {
                        "argumentTypes": [
                          {
                            "typeIdentifier": "t_bytes32",
                            "typeString": "bytes32"
                          }
                        ],
                        "id": 3523,
                        "isConstant": false,
                        "isLValue": false,
                        "isPure": true,
                        "lValueRequested": false,
                        "nodeType": "ElementaryTypeNameExpression",
                        "src": "309:7:4",
                        "typeDescriptions": {
                          "typeIdentifier": "t_type$_t_uint256_$",
                          "typeString": "type(uint256)"
                        },
                        "typeName": {
                          "id": 3522,
                          "name": "uint256",
                          "nodeType": "ElementaryTypeName",
                          "src": "309:7:4",
                          "typeDescriptions": {}
                        }
                      },
                      "id": 3527,
                      "isConstant": false,
                      "isLValue": false,
                      "isPure": true,
                      "kind": "typeConversion",
                      "lValueRequested": false,
                      "nameLocations": [],
                      "names": [],
                      "nodeType": "FunctionCall",
                      "src": "309:37:4",
                      "tryCall": false,
                      "typeDescriptions": {
                        "typeIdentifier": "t_uint256",
                        "typeString": "uint256"
                      }
                    }
                  ],
                  "expression": {
                    "argumentTypes": [
                      {
                        "typeIdentifier": "t_uint256",
                        "typeString": "uint256"
                      }
                    ],
                    "id": 3521,
                    "isConstant": false,
                    "isLValue": false,
                    "isPure": true,
                    "lValueRequested": false,
                    "nodeType": "ElementaryTypeNameExpression",
                    "src": "301:7:4",
                    "typeDescriptions": {
                      "typeIdentifier": "t_type$_t_uint160_$",
                      "typeString": "type(uint160)"
                    },
                    "typeName": {
                      "id": 3520,
                      "name": "uint160",
                      "nodeType": "ElementaryTypeName",
                      "src": "301:7:4",
                      "typeDescriptions": {}
                    }
                  },
                  "id": 3528,
                  "isConstant": false,
                  "isLValue": false,
                  "isPure": true,
                  "kind": "typeConversion",
                  "lValueRequested": false,
                  "nameLocations": [],
                  "names": [],
                  "nodeType": "FunctionCall",
                  "src": "301:46:4",
                  "tryCall": false,
                  "typeDescriptions": {
                    "typeIdentifier": "t_uint160",
                    "typeString": "uint160"
                  }
                }
              ],
              "expression": {
                "argumentTypes": [
                  {
                    "typeIdentifier": "t_uint160",
                    "typeString": "uint160"
                  }
                ],
                "id": 3519,
                "isConstant": false,
                "isLValue": false,
                "isPure": true,
                "lValueRequested": false,
                "nodeType": "ElementaryTypeNameExpression",
                "src": "293:7:4",
                "typeDescriptions": {
                  "typeIdentifier": "t_type$_t_address_$",
                  "typeString": "type(address)"
                },
                "typeName": {
                  "id": 3518,
                  "name": "address",
                  "nodeType": "ElementaryTypeName",
                  "src": "293:7:4",
                  "typeDescriptions": {}
                }
              },
              "id": 3529,
              "isConstant": false,
              "isLValue": false,
              "isPure": true,
              "kind": "typeConversion",
              "lValueRequested": false,
              "nameLocations": [],
              "names": [],
              "nodeType": "FunctionCall",
              "src": "293:55:4",
              "tryCall": false,
              "typeDescriptions": {
                "typeIdentifier": "t_address",
                "typeString": "address"
              }
            },
            "visibility": "internal"
          },
          {
            "id": 3533,
            "nodeType": "VariableDeclaration",
            "src": "438:78:4",
            "nodes": [],
            "constant": true,
            "mutability": "constant",
            "name": "CONSOLE",
            "nameLocation": "464:7:4",
            "scope": 3572,
            "stateVariable": true,
            "storageLocation": "default",
            "typeDescriptions": {
              "typeIdentifier": "t_address",
              "typeString": "address"
            },
            "typeName": {
              "id": 3531,
              "name": "address",
              "nodeType": "ElementaryTypeName",
              "src": "438:7:4",
              "stateMutability": "nonpayable",
              "typeDescriptions": {
                "typeIdentifier": "t_address",
                "typeString": "address"
              }
            },
            "value": {
              "hexValue": "307830303030303030303030303030303030303036333646366537333646366336353265366336663637",
              "id": 3532,
              "isConstant": false,
              "isLValue": false,
              "isPure": true,
              "kind": "number",
              "lValueRequested": false,
              "nodeType": "Literal",
              "src": "474:42:4",
              "typeDescriptions": {
                "typeIdentifier": "t_address",
                "typeString": "address"
              },
              "value": "0x000000000000000000636F6e736F6c652e6c6f67"
            },
            "visibility": "internal"
          },
          {
            "id": 3536,
            "nodeType": "VariableDeclaration",
            "src": "623:86:4",
            "nodes": [],
            "constant": true,
            "mutability": "constant",
            "name": "CREATE2_FACTORY",
            "nameLocation": "649:15:4",
            "scope": 3572,
            "stateVariable": true,
            "storageLocation": "default",
            "typeDescriptions": {
              "typeIdentifier": "t_address",
              "typeString": "address"
            },
            "typeName": {
              "id": 3534,
              "name": "address",
              "nodeType": "ElementaryTypeName",
              "src": "623:7:4",
              "stateMutability": "nonpayable",
              "typeDescriptions": {
                "typeIdentifier": "t_address",
                "typeString": "address"
              }
            },
            "value": {
              "hexValue": "307834653539623434383437623337393537383538383932306341373846624632366330423439353643",
              "id": 3535,
              "isConstant": false,
              "isLValue": false,
              "isPure": true,
              "kind": "number",
              "lValueRequested": false,
              "nodeType": "Literal",
              "src": "667:42:4",
              "typeDescriptions": {
                "typeIdentifier": "t_address",
                "typeString": "address"
              },
              "value": "0x4e59b44847b379578588920cA78FbF26c0B4956C"
            },
            "visibility": "internal"
          },
          {
            "id": 3550,
            "nodeType": "VariableDeclaration",
            "src": "812:105:4",
            "nodes": [],
            "constant": true,
            "mutability": "constant",
            "name": "DEFAULT_SENDER",
            "nameLocation": "838:14:4",
            "scope": 3572,
            "stateVariable": true,
            "storageLocation": "default",
            "typeDescriptions": {
              "typeIdentifier": "t_address",
              "typeString": "address"
            },
            "typeName": {
              "id": 3537,
              "name": "address",
              "nodeType": "ElementaryTypeName",
              "src": "812:7:4",
              "stateMutability": "nonpayable",
              "typeDescriptions": {
                "typeIdentifier": "t_address",
                "typeString": "address"
              }
            },
            "value": {
              "arguments": [
                {
                  "arguments": [
                    {
                      "arguments": [
                        {
                          "arguments": [
                            {
                              "hexValue": "666f756e6472792064656661756c742063616c6c6572",
                              "id": 3545,
                              "isConstant": false,
                              "isLValue": false,
                              "isPure": true,
                              "kind": "string",
                              "lValueRequested": false,
                              "nodeType": "Literal",
                              "src": "889:24:4",
                              "typeDescriptions": {
                                "typeIdentifier": "t_stringliteral_ee6e12ba256a78bc5d3ab9651804c8ab1f12e6bbf3894d4083f33e07309d1f38",
                                "typeString": "literal_string \"foundry default caller\""
                              },
                              "value": "foundry default caller"
                            }
                          ],
                          "expression": {
                            "argumentTypes": [
                              {
                                "typeIdentifier": "t_stringliteral_ee6e12ba256a78bc5d3ab9651804c8ab1f12e6bbf3894d4083f33e07309d1f38",
                                "typeString": "literal_string \"foundry default caller\""
                              }
                            ],
                            "id": 3544,
                            "name": "keccak256",
                            "nodeType": "Identifier",
                            "overloadedDeclarations": [],
                            "referencedDeclaration": -8,
                            "src": "879:9:4",
                            "typeDescriptions": {
                              "typeIdentifier": "t_function_keccak256_pure$_t_bytes_memory_ptr_$returns$_t_bytes32_$",
                              "typeString": "function (bytes memory) pure returns (bytes32)"
                            }
                          },
                          "id": 3546,
                          "isConstant": false,
                          "isLValue": false,
                          "isPure": true,
                          "kind": "functionCall",
                          "lValueRequested": false,
                          "nameLocations": [],
                          "names": [],
                          "nodeType": "FunctionCall",
                          "src": "879:35:4",
                          "tryCall": false,
                          "typeDescriptions": {
                            "typeIdentifier": "t_bytes32",
                            "typeString": "bytes32"
                          }
                        }
                      ],
                      "expression": {
                        "argumentTypes": [
                          {
                            "typeIdentifier": "t_bytes32",
                            "typeString": "bytes32"
                          }
                        ],
                        "id": 3543,
                        "isConstant": false,
                        "isLValue": false,
                        "isPure": true,
                        "lValueRequested": false,
                        "nodeType": "ElementaryTypeNameExpression",
                        "src": "871:7:4",
                        "typeDescriptions": {
                          "typeIdentifier": "t_type$_t_uint256_$",
                          "typeString": "type(uint256)"
                        },
                        "typeName": {
                          "id": 3542,
                          "name": "uint256",
                          "nodeType": "ElementaryTypeName",
                          "src": "871:7:4",
                          "typeDescriptions": {}
                        }
                      },
                      "id": 3547,
                      "isConstant": false,
                      "isLValue": false,
                      "isPure": true,
                      "kind": "typeConversion",
                      "lValueRequested": false,
                      "nameLocations": [],
                      "names": [],
                      "nodeType": "FunctionCall",
                      "src": "871:44:4",
                      "tryCall": false,
                      "typeDescriptions": {
                        "typeIdentifier": "t_uint256",
                        "typeString": "uint256"
                      }
                    }
                  ],
                  "expression": {
                    "argumentTypes": [
                      {
                        "typeIdentifier": "t_uint256",
                        "typeString": "uint256"
                      }
                    ],
                    "id": 3541,
                    "isConstant": false,
                    "isLValue": false,
                    "isPure": true,
                    "lValueRequested": false,
                    "nodeType": "ElementaryTypeNameExpression",
                    "src": "863:7:4",
                    "typeDescriptions": {
                      "typeIdentifier": "t_type$_t_uint160_$",
                      "typeString": "type(uint160)"
                    },
                    "typeName": {
                      "id": 3540,
                      "name": "uint160",
                      "nodeType": "ElementaryTypeName",
                      "src": "863:7:4",
                      "typeDescriptions": {}
                    }
                  },
                  "id": 3548,
                  "isConstant": false,
                  "isLValue": false,
                  "isPure": true,
                  "kind": "typeConversion",
                  "lValueRequested": false,
                  "nameLocations": [],
                  "names": [],
                  "nodeType": "FunctionCall",
                  "src": "863:53:4",
                  "tryCall": false,
                  "typeDescriptions": {
                    "typeIdentifier": "t_uint160",
                    "typeString": "uint160"
                  }
                }
              ],
              "expression": {
                "argumentTypes": [
                  {
                    "typeIdentifier": "t_uint160",
                    "typeString": "uint160"
                  }
                ],
                "id": 3539,
                "isConstant": false,
                "isLValue": false,
                "isPure": true,
                "lValueRequested": false,
                "nodeType": "ElementaryTypeNameExpression",
                "src": "855:7:4",
                "typeDescriptions": {
                  "typeIdentifier": "t_type$_t_address_$",
                  "typeString": "type(address)"
                },
                "typeName": {
                  "id": 3538,
                  "name": "address",
                  "nodeType": "ElementaryTypeName",
                  "src": "855:7:4",
                  "typeDescriptions": {}
                }
              },
              "id": 3549,
              "isConstant": false,
              "isLValue": false,
              "isPure": true,
              "kind": "typeConversion",
              "lValueRequested": false,
              "nameLocations": [],
              "names": [],
              "nodeType": "FunctionCall",
              "src": "855:62:4",
              "tryCall": false,
              "typeDescriptions": {
                "typeIdentifier": "t_address",
                "typeString": "address"
              }
            },
            "visibility": "internal"
          },
          {
            "id": 3553,
            "nodeType": "VariableDeclaration",
            "src": "992:92:4",
            "nodes": [],
            "constant": true,
            "mutability": "constant",
            "name": "DEFAULT_TEST_CONTRACT",
            "nameLocation": "1018:21:4",
            "scope": 3572,
            "stateVariable": true,
            "storageLocation": "default",
            "typeDescriptions": {
              "typeIdentifier": "t_address",
              "typeString": "address"
            },
            "typeName": {
              "id": 3551,
              "name": "address",
              "nodeType": "ElementaryTypeName",
              "src": "992:7:4",
              "stateMutability": "nonpayable",
              "typeDescriptions": {
                "typeIdentifier": "t_address",
                "typeString": "address"
              }
            },
            "value": {
              "hexValue": "307835363135644542373938424233453464466130313339644661316233443433334363323362373266",
              "id": 3552,
              "isConstant": false,
              "isLValue": false,
              "isPure": true,
              "kind": "number",
              "lValueRequested": false,
              "nodeType": "Literal",
              "src": "1042:42:4",
              "typeDescriptions": {
                "typeIdentifier": "t_address",
                "typeString": "address"
              },
              "value": "0x5615dEB798BB3E4dFa0139dFa1b3D433Cc23b72f"
            },
            "visibility": "internal"
          },
          {
            "id": 3556,
            "nodeType": "VariableDeclaration",
            "src": "1158:89:4",
            "nodes": [],
            "constant": true,
            "mutability": "constant",
            "name": "MULTICALL3_ADDRESS",
            "nameLocation": "1184:18:4",
            "scope": 3572,
            "stateVariable": true,
            "storageLocation": "default",
            "typeDescriptions": {
              "typeIdentifier": "t_address",
              "typeString": "address"
            },
            "typeName": {
              "id": 3554,
              "name": "address",
              "nodeType": "ElementaryTypeName",
              "src": "1158:7:4",
              "stateMutability": "nonpayable",
              "typeDescriptions": {
                "typeIdentifier": "t_address",
                "typeString": "address"
              }
            },
            "value": {
              "hexValue": "307863413131626465303539373762333633313136373032383836326245326131373339373643413131",
              "id": 3555,
              "isConstant": false,
              "isLValue": false,
              "isPure": true,
              "kind": "number",
              "lValueRequested": false,
              "nodeType": "Literal",
              "src": "1205:42:4",
              "typeDescriptions": {
                "typeIdentifier": "t_address",
                "typeString": "address"
              },
              "value": "0xcA11bde05977b3631167028862bE2a173976CA11"
            },
            "visibility": "internal"
          },
          {
            "id": 3559,
            "nodeType": "VariableDeclaration",
            "src": "1294:130:4",
            "nodes": [],
            "constant": true,
            "mutability": "constant",
            "name": "SECP256K1_ORDER",
            "nameLocation": "1320:15:4",
            "scope": 3572,
            "stateVariable": true,
            "storageLocation": "default",
            "typeDescriptions": {
              "typeIdentifier": "t_uint256",
              "typeString": "uint256"
            },
            "typeName": {
              "id": 3557,
              "name": "uint256",
              "nodeType": "ElementaryTypeName",
              "src": "1294:7:4",
              "typeDescriptions": {
                "typeIdentifier": "t_uint256",
                "typeString": "uint256"
              }
            },
            "value": {
              "hexValue": "313135373932303839323337333136313935343233353730393835303038363837393037383532383337353634323739303734393034333832363035313633313431353138313631343934333337",
              "id": 3558,
              "isConstant": false,
              "isLValue": false,
              "isPure": true,
              "kind": "number",
              "lValueRequested": false,
              "nodeType": "Literal",
              "src": "1346:78:4",
              "typeDescriptions": {
                "typeIdentifier": "t_rational_115792089237316195423570985008687907852837564279074904382605163141518161494337_by_1",
                "typeString": "int_const 1157...(70 digits omitted)...4337"
              },
              "value": "115792089237316195423570985008687907852837564279074904382605163141518161494337"
            },
            "visibility": "internal"
          },
          {
            "id": 3562,
            "nodeType": "VariableDeclaration",
            "src": "1431:126:4",
            "nodes": [],
            "constant": true,
            "mutability": "constant",
            "name": "UINT256_MAX",
            "nameLocation": "1457:11:4",
            "scope": 3572,
            "stateVariable": true,
            "storageLocation": "default",
            "typeDescriptions": {
              "typeIdentifier": "t_uint256",
              "typeString": "uint256"
            },
            "typeName": {
              "id": 3560,
              "name": "uint256",
              "nodeType": "ElementaryTypeName",
              "src": "1431:7:4",
              "typeDescriptions": {
                "typeIdentifier": "t_uint256",
                "typeString": "uint256"
              }
            },
            "value": {
              "hexValue": "313135373932303839323337333136313935343233353730393835303038363837393037383533323639393834363635363430353634303339343537353834303037393133313239363339393335",
              "id": 3561,
              "isConstant": false,
              "isLValue": false,
              "isPure": true,
              "kind": "number",
              "lValueRequested": false,
              "nodeType": "Literal",
              "src": "1479:78:4",
              "typeDescriptions": {
                "typeIdentifier": "t_rational_115792089237316195423570985008687907853269984665640564039457584007913129639935_by_1",
                "typeString": "int_const 1157...(70 digits omitted)...9935"
              },
              "value": "115792089237316195423570985008687907853269984665640564039457584007913129639935"
            },
            "visibility": "internal"
          },
          {
            "id": 3568,
            "nodeType": "VariableDeclaration",
            "src": "1564:40:4",
            "nodes": [],
            "constant": true,
            "mutability": "constant",
            "name": "vm",
            "nameLocation": "1585:2:4",
            "scope": 3572,
            "stateVariable": true,
            "storageLocation": "default",
            "typeDescriptions": {
              "typeIdentifier": "t_contract$_Vm_$14195",
              "typeString": "contract Vm"
            },
            "typeName": {
              "id": 3564,
              "nodeType": "UserDefinedTypeName",
              "pathNode": {
                "id": 3563,
                "name": "Vm",
                "nameLocations": [
                  "1564:2:4"
                ],
                "nodeType": "IdentifierPath",
                "referencedDeclaration": 14195,
                "src": "1564:2:4"
              },
              "referencedDeclaration": 14195,
              "src": "1564:2:4",
              "typeDescriptions": {
                "typeIdentifier": "t_contract$_Vm_$14195",
                "typeString": "contract Vm"
              }
            },
            "value": {
              "arguments": [
                {
                  "id": 3566,
                  "name": "VM_ADDRESS",
                  "nodeType": "Identifier",
                  "overloadedDeclarations": [],
                  "referencedDeclaration": 3530,
                  "src": "1593:10:4",
                  "typeDescriptions": {
                    "typeIdentifier": "t_address",
                    "typeString": "address"
                  }
                }
              ],
              "expression": {
                "argumentTypes": [
                  {
                    "typeIdentifier": "t_address",
                    "typeString": "address"
                  }
                ],
                "id": 3565,
                "name": "Vm",
                "nodeType": "Identifier",
                "overloadedDeclarations": [],
                "referencedDeclaration": 14195,
                "src": "1590:2:4",
                "typeDescriptions": {
                  "typeIdentifier": "t_type$_t_contract$_Vm_$14195_$",
                  "typeString": "type(contract Vm)"
                }
              },
              "id": 3567,
              "isConstant": false,
              "isLValue": false,
              "isPure": true,
              "kind": "typeConversion",
              "lValueRequested": false,
              "nameLocations": [],
              "names": [],
              "nodeType": "FunctionCall",
              "src": "1590:14:4",
              "tryCall": false,
              "typeDescriptions": {
                "typeIdentifier": "t_contract$_Vm_$14195",
                "typeString": "contract Vm"
              }
            },
            "visibility": "internal"
          },
          {
            "id": 3571,
            "nodeType": "VariableDeclaration",
            "src": "1610:28:4",
            "nodes": [],
            "constant": false,
            "mutability": "mutable",
            "name": "stdstore",
            "nameLocation": "1630:8:4",
            "scope": 3572,
            "stateVariable": true,
            "storageLocation": "default",
            "typeDescriptions": {
              "typeIdentifier": "t_struct$_StdStorage_$9148_storage",
              "typeString": "struct StdStorage"
            },
            "typeName": {
              "id": 3570,
              "nodeType": "UserDefinedTypeName",
              "pathNode": {
                "id": 3569,
                "name": "StdStorage",
                "nameLocations": [
                  "1610:10:4"
                ],
                "nodeType": "IdentifierPath",
                "referencedDeclaration": 9148,
                "src": "1610:10:4"
              },
              "referencedDeclaration": 9148,
              "src": "1610:10:4",
              "typeDescriptions": {
                "typeIdentifier": "t_struct$_StdStorage_$9148_storage_ptr",
                "typeString": "struct StdStorage"
              }
            },
            "visibility": "internal"
          }
        ],
        "abstract": true,
        "baseContracts": [],
        "canonicalName": "CommonBase",
        "contractDependencies": [],
        "contractKind": "contract",
        "fullyImplemented": true,
        "linearizedBaseContracts": [
          3572
        ],
        "name": "CommonBase",
        "nameLocation": "166:10:4",
        "scope": 3585,
        "usedErrors": []
      },
      {
        "id": 3575,
        "nodeType": "ContractDefinition",
        "src": "1643:43:4",
        "nodes": [],
        "abstract": true,
        "baseContracts": [
          {
            "baseName": {
              "id": 3573,
              "name": "CommonBase",
              "nameLocations": [
                "1673:10:4"
              ],
              "nodeType": "IdentifierPath",
              "referencedDeclaration": 3572,
              "src": "1673:10:4"
            },
            "id": 3574,
            "nodeType": "InheritanceSpecifier",
            "src": "1673:10:4"
          }
        ],
        "canonicalName": "TestBase",
        "contractDependencies": [],
        "contractKind": "contract",
        "fullyImplemented": true,
        "linearizedBaseContracts": [
          3575,
          3572
        ],
        "name": "TestBase",
        "nameLocation": "1661:8:4",
        "scope": 3585,
        "usedErrors": []
      },
      {
        "id": 3584,
        "nodeType": "ContractDefinition",
        "src": "1688:104:4",
        "nodes": [
          {
            "id": 3583,
            "nodeType": "VariableDeclaration",
            "src": "1737:52:4",
            "nodes": [],
            "constant": true,
            "mutability": "constant",
            "name": "vmSafe",
            "nameLocation": "1762:6:4",
            "scope": 3584,
            "stateVariable": true,
            "storageLocation": "default",
            "typeDescriptions": {
              "typeIdentifier": "t_contract$_VmSafe_$13738",
              "typeString": "contract VmSafe"
            },
            "typeName": {
              "id": 3579,
              "nodeType": "UserDefinedTypeName",
              "pathNode": {
                "id": 3578,
                "name": "VmSafe",
                "nameLocations": [
                  "1737:6:4"
                ],
                "nodeType": "IdentifierPath",
                "referencedDeclaration": 13738,
                "src": "1737:6:4"
              },
              "referencedDeclaration": 13738,
              "src": "1737:6:4",
              "typeDescriptions": {
                "typeIdentifier": "t_contract$_VmSafe_$13738",
                "typeString": "contract VmSafe"
              }
            },
            "value": {
              "arguments": [
                {
                  "id": 3581,
                  "name": "VM_ADDRESS",
                  "nodeType": "Identifier",
                  "overloadedDeclarations": [],
                  "referencedDeclaration": 3530,
                  "src": "1778:10:4",
                  "typeDescriptions": {
                    "typeIdentifier": "t_address",
                    "typeString": "address"
                  }
                }
              ],
              "expression": {
                "argumentTypes": [
                  {
                    "typeIdentifier": "t_address",
                    "typeString": "address"
                  }
                ],
                "id": 3580,
                "name": "VmSafe",
                "nodeType": "Identifier",
                "overloadedDeclarations": [],
                "referencedDeclaration": 13738,
                "src": "1771:6:4",
                "typeDescriptions": {
                  "typeIdentifier": "t_type$_t_contract$_VmSafe_$13738_$",
                  "typeString": "type(contract VmSafe)"
                }
              },
              "id": 3582,
              "isConstant": false,
              "isLValue": false,
              "isPure": true,
              "kind": "typeConversion",
              "lValueRequested": false,
              "nameLocations": [],
              "names": [],
              "nodeType": "FunctionCall",
              "src": "1771:18:4",
              "tryCall": false,
              "typeDescriptions": {
                "typeIdentifier": "t_contract$_VmSafe_$13738",
                "typeString": "contract VmSafe"
              }
            },
            "visibility": "internal"
          }
        ],
        "abstract": true,
        "baseContracts": [
          {
            "baseName": {
              "id": 3576,
              "name": "CommonBase",
              "nameLocations": [
                "1720:10:4"
              ],
              "nodeType": "IdentifierPath",
              "referencedDeclaration": 3572,
              "src": "1720:10:4"
            },
            "id": 3577,
            "nodeType": "InheritanceSpecifier",
            "src": "1720:10:4"
          }
        ],
        "canonicalName": "ScriptBase",
        "contractDependencies": [],
        "contractKind": "contract",
        "fullyImplemented": true,
        "linearizedBaseContracts": [
          3584,
          3572
        ],
        "name": "ScriptBase",
        "nameLocation": "1706:10:4",
        "scope": 3585,
        "usedErrors": []
      }
    ],
    "license": "MIT"
  },
  "id": 4
}