{
  "abi": [
    {
      "inputs": [
        {
          "internalType": "bytes4",
          "name": "interfaceId",
          "type": "bytes4"
        }
      ],
      "name": "supportsInterface",
      "outputs": [
        {
          "internalType": "bool",
          "name": "",
          "type": "bool"
        }
      ],
      "stateMutability": "view",
      "type": "function"
    }
  ],
  "bytecode": {
    "object": "0x",
    "sourceMap": "",
    "linkReferences": {}
  },
  "deployedBytecode": {
    "object": "0x",
    "sourceMap": "",
    "linkReferences": {}
  },
  "methodIdentifiers": {
    "supportsInterface(bytes4)": "01ffc9a7"
  },
  "rawMetadata": "{\"compiler\":{\"version\":\"0.8.17+commit.8df45f5f\"},\"language\":\"Solidity\",\"output\":{\"abi\":[{\"inputs\":[{\"internalType\":\"bytes4\",\"name\":\"interfaceId\",\"type\":\"bytes4\"}],\"name\":\"supportsInterface\",\"outputs\":[{\"internalType\":\"bool\",\"name\":\"\",\"type\":\"bool\"}],\"stateMutability\":\"view\",\"type\":\"function\"}],\"devdoc\":{\"details\":\"Implementation of the {IERC165} interface. Contracts that want to implement ERC165 should inherit from this contract and override {supportsInterface} to check for the additional interface id that will be supported. For example: ```solidity function supportsInterface(bytes4 interfaceId) public view virtual override returns (bool) {     return interfaceId == type(MyInterface).interfaceId || super.supportsInterface(interfaceId); } ``` Alternatively, {ERC165Storage} provides an easier to use but more expensive implementation.\",\"kind\":\"dev\",\"methods\":{\"supportsInterface(bytes4)\":{\"details\":\"See {IERC165-supportsInterface}.\"}},\"version\":1},\"userdoc\":{\"kind\":\"user\",\"methods\":{},\"version\":1}},\"settings\":{\"compilationTarget\":{\"lib/openzeppelin-contracts/contracts/utils/introspection/ERC165.sol\":\"ERC165\"},\"evmVersion\":\"london\",\"libraries\":{},\"metadata\":{\"bytecodeHash\":\"ipfs\"},\"optimizer\":{\"enabled\":true,\"runs\":200},\"remappings\":[\":ds-test/=lib/forge-std/lib/ds-test/src/\",\":erc4626-tests/=lib/openzeppelin-contracts/lib/erc4626-tests/\",\":forge-std/=lib/forge-std/src/\",\":openzeppelin-contracts/=lib/openzeppelin-contracts/\",\":openzeppelin/=lib/openzeppelin-contracts/contracts/\"]},\"sources\":{\"lib/openzeppelin-contracts/contracts/utils/introspection/ERC165.sol\":{\"keccak256\":\"0xd10975de010d89fd1c78dc5e8a9a7e7f496198085c151648f20cba166b32582b\",\"license\":\"MIT\",\"urls\":[\"bzz-raw://fb0048dee081f6fffa5f74afc3fb328483c2a30504e94a0ddd2a5114d731ec4d\",\"dweb:/ipfs/QmZptt1nmYoA5SgjwnSgWqgUSDgm4q52Yos3xhnMv3MV43\"]},\"lib/openzeppelin-contracts/contracts/utils/introspection/IERC165.sol\":{\"keccak256\":\"0x447a5f3ddc18419d41ff92b3773fb86471b1db25773e07f877f548918a185bf1\",\"license\":\"MIT\",\"urls\":[\"bzz-raw://be161e54f24e5c6fae81a12db1a8ae87bc5ae1b0ddc805d82a1440a68455088f\",\"dweb:/ipfs/QmP7C3CHdY9urF4dEMb9wmsp1wMxHF6nhA2yQE5SKiPAdy\"]}},\"version\":1}",
  "metadata": {
    "compiler": {
      "version": "0.8.17+commit.8df45f5f"
    },
    "language": "Solidity",
    "output": {
      "abi": [
        {
          "inputs": [
            {
              "internalType": "bytes4",
              "name": "interfaceId",
              "type": "bytes4"
            }
          ],
          "stateMutability": "view",
          "type": "function",
          "name": "supportsInterface",
          "outputs": [
            {
              "internalType": "bool",
              "name": "",
              "type": "bool"
            }
          ]
        }
      ],
      "devdoc": {
        "kind": "dev",
        "methods": {
          "supportsInterface(bytes4)": {
            "details": "See {IERC165-supportsInterface}."
          }
        },
        "version": 1
      },
      "userdoc": {
        "kind": "user",
        "methods": {},
        "version": 1
      }
    },
    "settings": {
      "remappings": [
        ":ds-test/=lib/forge-std/lib/ds-test/src/",
        ":erc4626-tests/=lib/openzeppelin-contracts/lib/erc4626-tests/",
        ":forge-std/=lib/forge-std/src/",
        ":openzeppelin-contracts/=lib/openzeppelin-contracts/",
        ":openzeppelin/=lib/openzeppelin-contracts/contracts/"
      ],
      "optimizer": {
        "enabled": true,
        "runs": 200
      },
      "metadata": {
        "bytecodeHash": "ipfs"
      },
      "compilationTarget": {
        "lib/openzeppelin-contracts/contracts/utils/introspection/ERC165.sol": "ERC165"
      },
      "libraries": {}
    },
    "sources": {
      "lib/openzeppelin-contracts/contracts/utils/introspection/ERC165.sol": {
        "keccak256": "0xd10975de010d89fd1c78dc5e8a9a7e7f496198085c151648f20cba166b32582b",
        "urls": [
          "bzz-raw://fb0048dee081f6fffa5f74afc3fb328483c2a30504e94a0ddd2a5114d731ec4d",
          "dweb:/ipfs/QmZptt1nmYoA5SgjwnSgWqgUSDgm4q52Yos3xhnMv3MV43"
        ],
        "license": "MIT"
      },
      "lib/openzeppelin-contracts/contracts/utils/introspection/IERC165.sol": {
        "keccak256": "0x447a5f3ddc18419d41ff92b3773fb86471b1db25773e07f877f548918a185bf1",
        "urls": [
          "bzz-raw://be161e54f24e5c6fae81a12db1a8ae87bc5ae1b0ddc805d82a1440a68455088f",
          "dweb:/ipfs/QmP7C3CHdY9urF4dEMb9wmsp1wMxHF6nhA2yQE5SKiPAdy"
        ],
        "license": "MIT"
      }
    },
    "version": 1
  },
  "ast": {
    "absolutePath": "lib/openzeppelin-contracts/contracts/utils/introspection/ERC165.sol",
    "id": 33568,
    "exportedSymbols": {
      "ERC165": [
        33567
      ],
      "IERC165": [
        33579
      ]
    },
    "nodeType": "SourceUnit",
    "src": "99:888:35",
    "nodes": [
      {
        "id": 33545,
        "nodeType": "PragmaDirective",
        "src": "99:23:35",
        "nodes": [],
        "literals": [
          "solidity",
          "^",
          "0.8",
          ".0"
        ]
      },
      {
        "id": 33546,
        "nodeType": "ImportDirective",
        "src": "124:23:35",
        "nodes": [],
        "absolutePath": "lib/openzeppelin-contracts/contracts/utils/introspection/IERC165.sol",
        "file": "./IERC165.sol",
        "nameLocation": "-1:-1:-1",
        "scope": 33568,
        "sourceUnit": 33580,
        "symbolAliases": [],
        "unitAlias": ""
      },
      {
        "id": 33567,
        "nodeType": "ContractDefinition",
        "src": "726:260:35",
        "nodes": [
          {
            "id": 33566,
            "nodeType": "FunctionDefinition",
            "src": "829:155:35",
            "nodes": [],
            "body": {
              "id": 33565,
              "nodeType": "Block",
              "src": "920:64:35",
              "nodes": [],
              "statements": [
                {
                  "expression": {
                    "commonType": {
                      "typeIdentifier": "t_bytes4",
                      "typeString": "bytes4"
                    },
                    "id": 33563,
                    "isConstant": false,
                    "isLValue": false,
                    "isPure": false,
                    "lValueRequested": false,
                    "leftExpression": {
                      "id": 33558,
                      "name": "interfaceId",
                      "nodeType": "Identifier",
                      "overloadedDeclarations": [],
                      "referencedDeclaration": 33552,
                      "src": "937:11:35",
                      "typeDescriptions": {
                        "typeIdentifier": "t_bytes4",
                        "typeString": "bytes4"
                      }
                    },
                    "nodeType": "BinaryOperation",
                    "operator": "==",
                    "rightExpression": {
                      "expression": {
                        "arguments": [
                          {
                            "id": 33560,
                            "name": "IERC165",
                            "nodeType": "Identifier",
                            "overloadedDeclarations": [],
                            "referencedDeclaration": 33579,
                            "src": "957:7:35",
                            "typeDescriptions": {
                              "typeIdentifier": "t_type$_t_contract$_IERC165_$33579_$",
                              "typeString": "type(contract IERC165)"
                            }
                          }
                        ],
                        "expression": {
                          "argumentTypes": [
                            {
                              "typeIdentifier": "t_type$_t_contract$_IERC165_$33579_$",
                              "typeString": "type(contract IERC165)"
                            }
                          ],
                          "id": 33559,
                          "name": "type",
                          "nodeType": "Identifier",
                          "overloadedDeclarations": [],
                          "referencedDeclaration": -27,
                          "src": "952:4:35",
                          "typeDescriptions": {
                            "typeIdentifier": "t_function_metatype_pure$__$returns$__$",
                            "typeString": "function () pure"
                          }
                        },
                        "id": 33561,
                        "isConstant": false,
                        "isLValue": false,
                        "isPure": true,
                        "kind": "functionCall",
                        "lValueRequested": false,
                        "nameLocations": [],
                        "names": [],
                        "nodeType": "FunctionCall",
                        "src": "952:13:35",
                        "tryCall": false,
                        "typeDescriptions": {
                          "typeIdentifier": "t_magic_meta_type_t_contract$_IERC165_$33579",
                          "typeString": "type(contract IERC165)"
                        }
                      },
                      "id": 33562,
                      "isConstant": false,
                      "isLValue": false,
                      "isPure": true,
                      "lValueRequested": false,
                      "memberLocation": "966:11:35",
                      "memberName": "interfaceId",
                      "nodeType": "MemberAccess",
                      "src": "952:25:35",
                      "typeDescriptions": {
                        "typeIdentifier": "t_bytes4",
                        "typeString": "bytes4"
                      }
                    },
                    "src": "937:40:35",
                    "typeDescriptions": {
                      "typeIdentifier": "t_bool",
                      "typeString": "bool"
                    }
                  },
                  "functionReturnParameters": 33557,
                  "id": 33564,
                  "nodeType": "Return",
                  "src": "930:47:35"
                }
              ]
            },
            "baseFunctions": [
              33578
            ],
            "documentation": {
              "id": 33550,
              "nodeType": "StructuredDocumentation",
              "src": "768:56:35",
              "text": " @dev See {IERC165-supportsInterface}."
            },
            "functionSelector": "01ffc9a7",
            "implemented": true,
            "kind": "function",
            "modifiers": [],
            "name": "supportsInterface",
            "nameLocation": "838:17:35",
            "overrides": {
              "id": 33554,
              "nodeType": "OverrideSpecifier",
              "overrides": [],
              "src": "896:8:35"
            },
            "parameters": {
              "id": 33553,
              "nodeType": "ParameterList",
              "parameters": [
                {
                  "constant": false,
                  "id": 33552,
                  "mutability": "mutable",
                  "name": "interfaceId",
                  "nameLocation": "863:11:35",
                  "nodeType": "VariableDeclaration",
                  "scope": 33566,
                  "src": "856:18:35",
                  "stateVariable": false,
                  "storageLocation": "default",
                  "typeDescriptions": {
                    "typeIdentifier": "t_bytes4",
                    "typeString": "bytes4"
                  },
                  "typeName": {
                    "id": 33551,
                    "name": "bytes4",
                    "nodeType": "ElementaryTypeName",
                    "src": "856:6:35",
                    "typeDescriptions": {
                      "typeIdentifier": "t_bytes4",
                      "typeString": "bytes4"
                    }
                  },
                  "visibility": "internal"
                }
              ],
              "src": "855:20:35"
            },
            "returnParameters": {
              "id": 33557,
              "nodeType": "ParameterList",
              "parameters": [
                {
                  "constant": false,
                  "id": 33556,
                  "mutability": "mutable",
                  "name": "",
                  "nameLocation": "-1:-1:-1",
                  "nodeType": "VariableDeclaration",
                  "scope": 33566,
                  "src": "914:4:35",
                  "stateVariable": false,
                  "storageLocation": "default",
                  "typeDescriptions": {
                    "typeIdentifier": "t_bool",
                    "typeString": "bool"
                  },
                  "typeName": {
                    "id": 33555,
                    "name": "bool",
                    "nodeType": "ElementaryTypeName",
                    "src": "914:4:35",
                    "typeDescriptions": {
                      "typeIdentifier": "t_bool",
                      "typeString": "bool"
                    }
                  },
                  "visibility": "internal"
                }
              ],
              "src": "913:6:35"
            },
            "scope": 33567,
            "stateMutability": "view",
            "virtual": true,
            "visibility": "public"
          }
        ],
        "abstract": true,
        "baseContracts": [
          {
            "baseName": {
              "id": 33548,
              "name": "IERC165",
              "nameLocations": [
                "754:7:35"
              ],
              "nodeType": "IdentifierPath",
              "referencedDeclaration": 33579,
              "src": "754:7:35"
            },
            "id": 33549,
            "nodeType": "InheritanceSpecifier",
            "src": "754:7:35"
          }
        ],
        "canonicalName": "ERC165",
        "contractDependencies": [],
        "contractKind": "contract",
        "documentation": {
          "id": 33547,
          "nodeType": "StructuredDocumentation",
          "src": "149:576:35",
          "text": " @dev Implementation of the {IERC165} interface.\n Contracts that want to implement ERC165 should inherit from this contract and override {supportsInterface} to check\n for the additional interface id that will be supported. For example:\n ```solidity\n function supportsInterface(bytes4 interfaceId) public view virtual override returns (bool) {\n     return interfaceId == type(MyInterface).interfaceId || super.supportsInterface(interfaceId);\n }\n ```\n Alternatively, {ERC165Storage} provides an easier to use but more expensive implementation."
        },
        "fullyImplemented": true,
        "linearizedBaseContracts": [
          33567,
          33579
        ],
        "name": "ERC165",
        "nameLocation": "744:6:35",
        "scope": 33568,
        "usedErrors": []
      }
    ],
    "license": "MIT"
  },
  "id": 35
}